// Jest Snapshot v1, https://goo.gl/fbAQLP

exports[`Event Item with action buttons renders the action buttons 1`] = `
<div
  class="gl-display-flex gl-align-items-center"
>
  <div
    class="circle-icon-container gl-flex-shrink-0 gl-align-self-start ci-status-icon-success"
  >
    <svg
      aria-hidden="true"
      class="gl-icon s16"
      data-testid="plus-icon"
      role="img"
    >
      <use
        href="#plus"
      />
    </svg>
  </div>
   
  <div
    class="gl-ml-5 gl-flex-grow-1"
    data-qa-selector="event_item_content"
  >
    <div
      class="note-header-info gl-pb-0 gl-pl-0"
    >
      <!---->
       
      <a
        class="author-name-link js-user-link gl-overflow-hidden gl-overflow-wrap-break"
        data-username="gitlab"
      >
        <span
          class="note-header-author-name gl-font-weight-bold"
        >
          
        Tanuki
      
        </span>
      </a>
       
      <span
        class="text-nowrap author-username"
      >
        <a
          class="author-username-link"
        >
          <span
            class="note-headline-light"
          >
            @gitlab
          </span>
        </a>
          
        <!---->
      </span>
       
      <span
        class="note-headline-light note-headline-meta"
      >
        <span
          class="system-note-message"
          data-qa-selector="system_note_content"
        >
          ·
        </span>
         
        <!---->
         
        <!---->
          
        <!---->
      </span>
    </div>
     
  </div>
   
  <div
    class="gl-flex-shrink-0 gl-align-self-start"
    data-testid="action-buttons"
  >
    <button
      aria-label="Foo Action"
      class="btn btn-default btn-md gl-button btn-default-tertiary btn-icon"
      title="Foo Action"
      type="button"
    >
      <!---->
       
      <svg
        aria-hidden="true"
        class="gl-button-icon gl-icon s16"
        data-testid="pencil-icon"
        role="img"
      >
        <use
          href="#pencil"
        />
      </svg>
        
      <!---->
    </button>
    <button
      aria-label="Bar Action"
      class="btn btn-default btn-md gl-button btn-default-tertiary btn-icon"
      title="Bar Action"
      type="button"
    >
      <!---->
       
      <svg
        aria-hidden="true"
        class="gl-button-icon gl-icon s16"
        data-testid="remove-icon"
        role="img"
      >
        <use
          href="#remove"
        />
      </svg>
        
      <!---->
    </button>
  </div>
</div>
`;
